{
  "code": 200,
  "message": "成功",
  "page": {
    "pageIndex": 1,
    "pageSize": 1,
    "pageCount": 3,
    "total": 3
  },
  "data": [
    {
      "commentId": "5cd6aa0e2f396e0681f68c56",
      "businessId": "5c6d52212f396e42e5aa5d78",
      "content": "非常好的医案，收益匪浅！鬼针草这个药很神奇，张老师在这里用得很妙啊！",
      "realName": "游客",
      "headPhoto": "https://pic.5aszy.com/static/image/youke.png",
      "titles": null,
      "createTime": "5分钟前",
      "count": 0,
      "owner": false,
      "comment": null
    }
  ]
}
